<?xml version="1.0" encoding="UTF-8" standalone="no"?>
<svg
   xmlns:dc="http://purl.org/dc/elements/1.1/"
   xmlns:cc="http://creativecommons.org/ns#"
   xmlns:rdf="http://www.w3.org/1999/02/22-rdf-syntax-ns#"
   xmlns:svg="http://www.w3.org/2000/svg"
   xmlns="http://www.w3.org/2000/svg"
   xmlns:sodipodi="http://sodipodi.sourceforge.net/DTD/sodipodi-0.dtd"
   xmlns:inkscape="http://www.inkscape.org/namespaces/inkscape"
   width="16"
   height="16"
   viewBox="0 0 4.2333332 4.2333335"
   version="1.1"
   id="svg3393"
   inkscape:version="1.0.1 (3bc2e813f5, 2020-09-07)"
   sodipodi:docname="replace_all.svg"
   inkscape:export-filename="/home/juliette/Documents/python/PyTkEditor/pytkeditorlib/images/replace_all.png"
   inkscape:export-xdpi="84.000008"
   inkscape:export-ydpi="84.000008">
  <defs
     id="defs3387" />
  <sodipodi:namedview
     id="base"
     pagecolor="#ffffff"
     bordercolor="#666666"
     borderopacity="1.0"
     inkscape:pageopacity="0.0"
     inkscape:pageshadow="2"
     inkscape:zoom="63.356767"
     inkscape:cx="21.936144"
     inkscape:cy="4.3033273"
     inkscape:document-units="mm"
     inkscape:current-layer="layer1"
     inkscape:document-rotation="0"
     showgrid="false"
     units="px"
     showguides="true"
     inkscape:guide-bbox="true"
     inkscape:window-width="3840"
     inkscape:window-height="2107"
     inkscape:window-x="0"
     inkscape:window-y="27"
     inkscape:window-maximized="1">
    <sodipodi:guide
       position="7.7689073,4.3861344"
       orientation="1,0"
       id="guide3991" />
  </sodipodi:namedview>
  <metadata
     id="metadata3390">
    <rdf:RDF>
      <cc:Work
         rdf:about="">
        <dc:format>image/svg+xml</dc:format>
        <dc:type
           rdf:resource="http://purl.org/dc/dcmitype/StillImage" />
        <dc:title></dc:title>
      </cc:Work>
    </rdf:RDF>
  </metadata>
  <g
     inkscape:label="Layer 1"
     inkscape:groupmode="layer"
     id="layer1">
    <path
       style="fill:#c40000;fill-opacity:1;stroke:#990000;stroke-width:0.263173px;stroke-linecap:butt;stroke-linejoin:miter;stroke-opacity:1"
       d="M 0.42632935,0.79304484 H 3.8038839 L 2.1019593,2.4949693 Z"
       id="path3974" />
    <path
       style="fill:#c40000;fill-opacity:1;stroke:#990000;stroke-width:0.263173px;stroke-linecap:butt;stroke-linejoin:miter;stroke-opacity:1"
       d="M 0.4218091,1.8025868 H 3.7993638 L 2.0974391,3.5045111 Z"
       id="path3974-3" />
  </g>
</svg>
